<?xml version="1.0" standalone="no"?>
<!DOCTYPE svg PUBLIC "-//W3C//DTD SVG 1.1//EN" "http://www.w3.org/Graphics/SVG/1.1/DTD/svg11.dtd" >
<svg xmlns="http://www.w3.org/2000/svg">
<metadata>Generated by IcoMoon</metadata>
<defs>
<font id="icomoon" horiz-adv-x="1024">
<font-face units-per-em="1024" ascent="960" descent="-64" />
<missing-glyph horiz-adv-x="1024" />
<glyph unicode="&#x20;" horiz-adv-x="512" d="" />
<glyph unicode="&#xe900;" glyph-name="behance" d="M106.98 695.163l-4.979-4.982v-478.364l9.818-9.818 132.59 0.015c124.426 0.013 133.591 0.253 148.818 3.904 99.487 23.852 150.835 131.451 106.642 223.462-7.828 16.302-27.653 43.203-36.321 49.29-12.931 9.078-12.575 7.741-5.742 21.691 36.736 75-0.2 164.083-80.136 193.277l-14.669 5.358-251.039 1.144-4.982-4.979zM631.27 677.855c-7.127-5.606-8.259-55.721-1.446-64.133l3.822-4.721h90.967c110.781 0 99.387-4.147 99.387 36.165 0 40.75 10.527 36.833-99 36.833-86.464 0-88.579-0.092-93.729-4.145zM355.633 599.483c24.074-15.936 27.492-48.794 7.050-67.756-13.842-12.838-12.662-12.672-93.184-13.32l-73.498-0.591v88.32l151.299-1.137 8.333-5.517zM697.001 585.167c-142.392-27.873-204.564-202.872-112.98-318.021 77.522-97.464 227.581-94.528 298.959 5.855 30.858 43.397 31.178 42.998-34.591 42.998l-51.469 0.003-11.809-8.835c-49.283-36.861-121.935-11.715-142.994 49.495l-3.901 11.338h272.092l12.275 12.275-1.293 19.743c-7.946 121.224-112.008 207.127-224.289 185.149zM752.929 490.934c16.42-4.278 30.124-12.157 42.388-24.376 20.355-20.28 26.319-18.557-64.248-18.557-52.337 0-79.068 0.689-79.068 2.038 0 3.884 25.103 26.99 35.233 32.43 20.785 11.156 43.922 14.139 65.695 8.466zM384.381 417.411c49.987-24.548 49.987-92.275 0-116.823l-11.382-5.588-176.998-1.193v130.386l176.998-1.193 11.382-5.588z" />
<glyph unicode="&#xe901;" glyph-name="facebook" d="M598.001 958.618c-86.84-9.19-155.958-64.54-181.844-145.618-11.436-35.814-12.631-48.22-13.645-141.499l-0.929-85.501h-155.581v-184h155.999v-465.999h190.001v465.999l157 0.005 11.569 90.499c6.362 49.774 11.538 91.172 11.5 91.996-0.038 0.827-40.637 1.5-90.222 1.5h-90.156l0.765 71.501c1.341 125.565 8.635 132.367 142.044 132.467l43.5 0.033v163.607l-11.5 1.247c-40.591 4.401-141.238 6.651-168.499 3.763z" />
<glyph unicode="&#xe902;" glyph-name="google-plus" d="M268.001 753.958c-240.707-33.362-351.142-312.806-198.305-501.791 112.586-139.21 325.489-150.090 453.338-23.168 63.163 62.705 89.815 128.602 92.419 228.5l1.108 42.499h-310.561v-104h199.785l-3.064-10.499c-24.399-83.607-114.854-145.789-204.721-140.731-149.494 8.412-240.251 167.836-170.007 298.632 62.057 115.546 216.773 144.387 311.168 58.007l12.16-11.128 72.973 73.052-10.962 10.017c-67.118 61.343-161.229 92.265-245.33 80.609zM817.999 550.999v-51h-101.998v-104h101.998v-101.998h104v101.998h102.001v104h-102.001v102.001h-104v-51z" />
<glyph unicode="&#xe903;" glyph-name="instagram" horiz-adv-x="896" d="M448.2 678c-127.2 0-229.8-102.6-229.8-229.8s102.6-229.8 229.8-229.8 229.8 102.6 229.8 229.8-102.6 229.8-229.8 229.8zM448.2 298.8c-82.2 0-149.4 67-149.4 149.4s67 149.4 149.4 149.4 149.4-67 149.4-149.4-67.2-149.4-149.4-149.4zM741 687.4c0-29.8-24-53.6-53.6-53.6-29.8 0-53.6 24-53.6 53.6s24 53.6 53.6 53.6 53.6-24 53.6-53.6zM893.2 633c-3.4 71.8-19.8 135.4-72.4 187.8-52.4 52.4-116 68.8-187.8 72.4-74 4.2-295.8 4.2-369.8 0-71.6-3.4-135.2-19.8-187.8-72.2s-68.8-116-72.4-187.8c-4.2-74-4.2-295.8 0-369.8 3.4-71.8 19.8-135.4 72.4-187.8s116-68.8 187.8-72.4c74-4.2 295.8-4.2 369.8 0 71.8 3.4 135.4 19.8 187.8 72.4 52.4 52.4 68.8 116 72.4 187.8 4.2 74 4.2 295.6 0 369.6zM797.6 184c-15.6-39.2-45.8-69.4-85.2-85.2-59-23.4-199-18-264.2-18s-205.4-5.2-264.2 18c-39.2 15.6-69.4 45.8-85.2 85.2-23.4 59-18 199-18 264.2s-5.2 205.4 18 264.2c15.6 39.2 45.8 69.4 85.2 85.2 59 23.4 199 18 264.2 18s205.4 5.2 264.2-18c39.2-15.6 69.4-45.8 85.2-85.2 23.4-59 18-199 18-264.2s5.4-205.4-18-264.2z" />
<glyph unicode="&#xe904;" glyph-name="linkedin" d="M172.001 854.228c-72.553-23.457-94.172-111.537-40.684-165.75 55.145-55.89 152.074-26.056 166.651 51.295 13.86 73.533-56.054 137.060-125.967 114.455zM697.001 598.828c-62.971-8.942-107.392-34.614-134.871-77.944l-6.129-9.667v74.783h-164.001v-547.999h171.825l0.643 161.5c0.717 179.085 0.394 174.597 14.528 202.488 31.301 61.773 130.465 63.726 158.213 3.116 11.628-25.393 11.523-23.662 12.262-202.604l0.684-164.5h172.070l-0.822 186.499c-0.712 161.605-1.262 189.023-4.114 205.399-17.482 100.367-60.5 149.396-144.724 164.956-16.507 3.052-64.353 5.565-75.564 3.973zM113.999 312v-273.999h172.001v547.999h-172.001v-273.999z" />
<glyph unicode="&#xe905;" glyph-name="mail" d="M928 832h-832c-53.020 0-96-42.98-96-96v-576c0-53.020 42.98-96 96-96h832c53.020 0 96 42.98 96 96v576c0 53.020-42.98 96-96 96zM928 736v-81.61c-44.844-36.518-116.336-93.302-269.174-212.98-33.682-26.494-100.402-90.144-146.826-89.402-46.416-0.75-113.158 62.918-146.826 89.402-152.814 119.66-224.324 176.456-269.174 212.98v81.61h832zM96 160v371.204c45.828-36.502 110.818-87.724 209.876-165.292 43.714-34.41 120.268-110.372 206.124-109.91 85.434-0.462 161.018 74.398 206.106 109.894 99.056 77.566 164.064 128.802 209.894 165.306v-371.202h-832z" />
<glyph unicode="&#xe906;" glyph-name="twiiter" d="M637.468 778.975c-89.536-17.001-152.476-107.377-135.606-194.711l1.687-8.737-14.275 1.339c-117.125 10.975-213.619 56.776-297.887 141.394-36.654 36.805-32.102 34.15-38.121 22.241-32.973-65.249-18.609-143.821 36.196-198.001l14.669-14.5h-6.746c-9.961 0-34.883 6.825-50.074 13.711l-13.312 6.039 0.015-7.375c0.136-66.132 47.951-132.027 112.755-155.382l17.774-6.405-9.774-1.242c-23.89-3.036-36.659-3.484-48.771-1.71-16.092 2.355-15.424 3.487-8.108-13.704 23.616-55.498 86.221-101.934 137.426-101.934 12.508 0 10.941-2.586-9.82-16.23-56.172-36.92-115.886-54.057-188.403-54.065l-37.903-0.005 9.905-6.167c136.212-84.841 324.434-93.089 468.879-20.544 155.581 78.139 263.882 258.424 259.835 432.548l-0.384 16.535 19.448 16.233c24.993 20.861 70.702 73.7 63.752 73.697-0.893-0.003-10.627-3.22-21.627-7.153-20.058-7.171-56.684-16.84-63.8-16.845-2.683-0.003-1.213 1.866 5 6.354 21.094 15.24 43.092 43.366 53.012 67.784 7.393 18.191 6.81 18.783-9.713 9.882-18.908-10.186-49.861-22.356-72.827-28.636l-18.327-5.012-4.672 5c-33.211 35.538-98.624 55.396-150.205 45.601z" />
</font></defs></svg>